1893e71e0ae6c0984a17037a3ed250ebb478818d5b946937a7
95679c24f7bcabe15633dabafbdffa7e0d59ca98d39efb5038
17cbcb95ffc4d9f2815cf06c18ffda5cfbf7be0ffe9a7f8d94
e0d2e7e0e729498ecc2be48fa0345cf05dde692d628008b490
b92150a1e464430a4913d5166fe67e0ce94a5e836e8f35d8b7
e3c54f698bf5d1d0a2c327b3e1019f67ebfad9fe77589dad8a
be7b8207ebc05f484e42420d198e58c555a2454df69b9234a8
9a5218ee3903b1492f8f18a77e79fe410791ee227475801022
89a4355b7f37c8af081c25607066a8cddf1daaa5d8c4c6d39c
51036df5e6a1482cb8a1219c6b29d9805543162e93339cfc5e
14df8caa821f597792486fb8c5155828e84ff9387460c455ee
ecb95e65e33389d4afb7a4855de81374bf7e597652cf8f03f4
6d72046e5019a6e73a56cba4e9d3c48ce5d82063a2939078fd
387d5c465439262833e8d1e3c58ff771b091db9aac955b996a
729dcfe28cc10d5f623478ff656fd274cb7410a6c5054952c7
cd9bae5fe32e57a233368c04c95950a1ab9a62ce061dba0778
6fe7dfb003db8821cf23cffc53155721a2e668704a3feac04f
3e12a0d930409d2cfbdf92be6ba455e72fba8efa02608eb401
8c64e4ec46c19871cbccac0f26b1af50209cd84dad2f6af694
5f2755335bcf22bc1d5ca9e1ea76f61fd6cdb10e2b29a0900f
79dfe807d2045235984a6d71a9d1e0420a672b5cfa8434574d
56b118c577679ec67ff7b12e0f0210d89edf05bf95318d2ea0
5b228c3e19d4908953ca6d3cca84878669a9009865e8d1ba6b
455a317d862fd179430ed618d169b56057b44d3bb8c8d44c96
2188979dcbeede36732b4754502b77acbbf80805aca68a2258
ac40ddbebb734f482da5914aba1d5ff9ff2031f0d365039878
284a299e93497a5e877d91fc6c4aa96fd5cb5d7dcc1bde728c
fd867f0f9a7dcaf93f6b2900f00b69fb7d45255c0e1dc141a9
f26bf5a98cc1815fee9b2849a1aebaf629fd4b226d0060f546
ce2501e2966470c4336620c30d6e5a0338fb1aae5a99f948f2
6a60ee65bc59537968a3317eb6f0bea677fc126584540cdd9c
10b88a0cc95fcd0086facbd6d3ce6044d3aa3b7d79304d26f0
6605881efe711b47209049c92fa3e9bcece3374cecb2e7fd00
0c249be032382890a70374782d0bc5acd61de06a597661ea80
19a8c933900dfae371d3f4fa00f3ffec6639de42b20e28ce1b
dc4eb07ae91561dd1479230e0fe1947dc5921d66ede8af705f
91b3e3263b53f200b908a5faf6b7e74740aff407452db17bf5
782f8e5bfe9d9e698b4be045deaec5f00476bef65ba4bd50e4
918ef5198e7fb38fceceef82aed2e01cf1f6e093ae1e98e14f
15cf8c3a61f0fc94c5454b07bdb1cf17710ccfeca60f67111c
