cc28ea67e26cfe8137f6cddc62ff1416f5143df78fae48d152
294b3dccfd6deba8e45cbc0332d9ebb34595b0be6898bcfd73
0cb84024bb69eb954ccfc682bea916a6ffbe5c33ae9b44766e
86f5ee7b4acf970e5f41bf9c6ff2d743031f38b66f132dac7a
b9d19913159f43a70d6a53552f7ffdacb2bafbbbe1c83b32bc
826c21bca4fff96a2d42f3f7d9691a0785d04970708ec00da2
4dd2c09c5529261fd61b7bb118c31fec0d3748cf37bbc1a63d
a5d8a9cf9a6acb3a38db44dc38e3fa61d0eb15be6410d08fce
e088b18355814fc2f788ec147ff00be391ce173c95ab5f1d49
e90bc8f295ec9774dbdafb4b414121ae474617f77d289e63bc
81a38460f4c5be09f445976b5771e28d9de5757bcda092b9e4
5b1d56d08f1a4f5998777e17d42747c12ba3762f1a6f5cc0c5
775438f2411abae6518cf28cd7efbbdbd14497595c12d7a60f
26306688c810d02c79ff6b1cec8bf913515c112c282ade4aee
4722a0672675ace21a73d8bec43629633dea5a2c254f9d2bce
fd1fcad952ef6151f8811561d7b573714ac849719f7ca98e38
330792eba556f8faee57edb1c9b33e11510dbca45bf395c298
bd8386c15f076387c2e2895e24520e98c20519d6e87d23c6ed
ceefc3398f0c071c114d371a3be4e598537f68e38256fd2005
e10d3f25d8b33d623aaed6e26367234cf5b0e861e7d91cb017
f660e5c4504a3112e6cd55feb985eb886e20769b5000e846e6
9298a00d1df589291f496960f4c61975819df7f646362bec15
956a01efdf69392b535420b1ed1e2b1c8f6f8d486704944908
c24f773dfdd5c4492df333b48ddc1c4d44850ec0a240667686
0f0bf6925b3eb28ad0dbf7f0f96d1aeadd0565f19456df90a6
47a944ef6d780d6059f32459be6b37e7786e29cac768144b6d
b83794ca49760f7b0a90f4f2985109aefad965560498bc9880
90c43bb3b6ffc6f83a87e80e192d28f402268553ec236a42eb
7f7979f0465577db67f2da1088926c63ab398ffc7be614914c
6496f549894b7277ef95323d0eb75550c5a269355b0072bc7f
885f1452b664634fedea87b0e2595cd21098f9be9c2a3d0ad8
1a316506d85d1a1b8a71c59dd6e2198fad667c295d2f6cf27a
fdc906ae8ca838f1dea1903dc2d653f33d38d755fde744c71f
9d11c42e7b1eb5da24a31303e9d387c5c41975bfd11ed7ea1f
9c2c1cc183d455faf53662d9bf10ce268c8d2aa73201dbbbec
3ac50ad59ece95c66e72806cd0ab75c5b859c23371bad47bc8
be26fe5449893667112bbe7756464901d3feb0b79e31e9b999
8a79eb55e9e4c40d529db17d915c2f418a8040c5728ad5d91f
4292d148829fad1578e9f6738446a5200cc78e6a010671dd66
07126a5cebdc5e2d62eea567d535885cafc058d5c9550f4147
